{
  "@context": "https://raw.githubusercontent.com/mbjones/codemeta/master/codemeta.jsonld",
  "@type": "Code",
  "author": [
    {
      "@id": "",
      "@type": "Person",
      "email": "lbianchi@lbl.gov",
      "name": "Ludovico Bianchi",
      "affiliation": "Lawrence Berkeley National Lab"
    },
    {
      "@id": "0000-0002-6819-6949",
      "@type": "Person",
      "email": "dghoshal@lbl.gov",
      "name": "Devarshi Ghoshal",
      "affiliation": "Lawrence Berkeley National Lab"
    },
    {
      "@id": "",
      "@type": "Person",
      "email": "aessiari@lbl.gov",
      "name": "Abdelilah Essiari",
      "affiliation": "Lawrence Berkeley National Lab"
    },
    {
      "@id": "",
      "@type": "Person",
      "email": "mwb8@uw.edu",
      "name": "Michael Beach",
      "affiliation": "University of Washington"
    },
    {
      "@id": "",
      "@type": "Person",
      "email": "pained@lbl.gov",
      "name": "Drew Paine",
      "affiliation": "Lawrence Berkeley National Lab"
    },
    {
      "@id": "0000-0003-1761-4132",
      "@type": "Person",
      "email": "lramakrishnan@lbl.gov",
      "name": "Lavanya Ramakrishnan",
      "affiliation": "Lawrence Berkeley National Lab"
    }
  ],
  "identifier": "",
  "codeRepository": "https://bitbucket.org/sciencecapsule/sciencecapsule/",
  "datePublished": "2020-06-12",
  "dateModified": "2020-06-12",
  "dateCreated": "2020-06-12",
  "description": "Science Capsule captures, organizes, and manages the end-to-end scientific process to facilitate easy sharing of data and workflows across domains.",
  "keywords": "Data management, reproducibility, scientific workflows, big data analytics, data provenance",
  "license": "Lawrence Berkeley National Lab's modified BSD",
  "title": "Science Capsule",
  "version": "v0.1.0"
}
